Data Quality - Notes – MScIDS Notes
…
Task 01

Code

if (!require("readxl")) install.packages("readxl", dependencies=TRUE)
if (!require("dplyr")) install.packages("dplyr", dependencies=TRUE)

library(readxl)
library(dplyr)

data <- read_excel("/home/nils/dev/mscids-notes/fs26/dq/data/HSE.xlsx")
data

# A tibble: 13,908 × 2
   wtval   sex
   <dbl> <dbl>
 1  85.2     1
 2  72.7     1
 3  84.8     1
 4  73.6     1
 5  61.3     1
 6  81.9     1
 7  60       1
 8  NA       1
 9  NA       1
10 123.      1
# ℹ 13,898 more rows
…
Code

if (!require("dplyr")) install.packages("dplyr", dependencies=TRUE)

library(dplyr)

z_score_data <- data.M %>%
  mutate(
    z_score = (
      wtval - mean(wtval, na.rm = TRUE)) / sd(wtval, na.rm = TRUE)) %>%
  filter(abs(z_score) <= 5)

z_score_data

# A tibble: 5,682 × 3
   wtval   sex z_score
   <dbl> <dbl>   <dbl>
 1  85.2     1  0.105 
 2  72.7     1 -0.742 
 3  84.8     1  0.0779
 4  73.6     1 -0.681 
 5  61.3     1 -1.52  
 6  81.9     1 -0.119 
 7  60       1 -1.60  
 8 123.      1  2.69  
 9  98.4     1  1.000 
10  73.3     1 -0.702 
# ℹ 5,672 more rows
…
