R-Bootcamp - Notes – mscids-notes
…
The function pivot_wider converts a data frame from long to wide format.

pivot_wider(
    diamonds.long.format,
    names_from = feature,
    values_from = value
)

# A tibble: 53,940 × 11
   cut       color clarity    ID carat depth table price     x     y     z
   <ord>     <ord> <ord>   <int> <dbl> <dbl> <dbl> <dbl> <dbl> <dbl> <dbl>
 1 Ideal     E     SI2         1  0.23  61.5    55   326  3.95  3.98  2.43
 2 Premium   E     SI1         2  0.21  59.8    61   326  3.89  3.84  2.31
 3 Good      E     VS1         3  0.23  56.9    65   327  4.05  4.07  2.31
 4 Premium   I     VS2         4  0.29  62.4    58   334  4.2   4.23  2.63
 5 Good      J     SI2         5  0.31  63.3    58   335  4.34  4.35  2.75
 6 Very Good J     VVS2        6  0.24  62.8    57   336  3.94  3.96  2.48
 7 Very Good I     VVS1        7  0.24  62.3    57   336  3.95  3.98  2.47
 8 Very Good H     SI1         8  0.26  61.9    55   337  4.07  4.11  2.53
 9 Fair      E     VS2         9  0.22  65.1    61   337  3.87  3.78  2.49
10 Very Good H     VS1        10  0.23  59.4    61   338  4     4.05  2.39
# ℹ 53,930 more rows

Note: pivot_longer() and pivot_wider() are function from tidyr

Function of dplyr

select()

Selecting specific columns in a dataset.

select(diamonds, x, y, z) # Select specific cols

# A tibble: 53,940 × 3
       x     y     z
   <dbl> <dbl> <dbl>
 1  3.95  3.98  2.43
 2  3.89  3.84  2.31
 3  4.05  4.07  2.31
 4  4.2   4.23  2.63
 5  4.34  4.35  2.75
 6  3.94  3.96  2.48
 7  3.95  3.98  2.47
 8  4.07  4.11  2.53
 9  3.87  3.78  2.49
10  4     4.05  2.39
# ℹ 53,930 more rows
…
Note: The comma , between the statements in the function filter() means AND.

mutate() and across()

Create or calculate new columns.

mutate(diamonds, xPLUSy = x + y, depth.check = 2 * z / (xPLUSy))

# A tibble: 53,940 × 13
   carat cut      color clarity depth table price     x     y     z    ID xPLUSy
   <dbl> <ord>    <ord> <ord>   <dbl> <dbl> <int> <dbl> <dbl> <dbl> <int>  <dbl>
 1  0.23 Ideal    E     SI2      61.5    55   326  3.95  3.98  2.43     1   7.93
 2  0.21 Premium  E     SI1      59.8    61   326  3.89  3.84  2.31     2   7.73
 3  0.23 Good     E     VS1      56.9    65   327  4.05  4.07  2.31     3   8.12
 4  0.29 Premium  I     VS2      62.4    58   334  4.2   4.23  2.63     4   8.43
 5  0.31 Good     J     SI2      63.3    58   335  4.34  4.35  2.75     5   8.69
 6  0.24 Very Go… J     VVS2     62.8    57   336  3.94  3.96  2.48     6   7.9 
 7  0.24 Very Go… I     VVS1     62.3    57   336  3.95  3.98  2.47     7   7.93
 8  0.26 Very Go… H     SI1      61.9    55   337  4.07  4.11  2.53     8   8.18
 9  0.22 Fair     E     VS2      65.1    61   337  3.87  3.78  2.49     9   7.65
10  0.23 Very Go… H     VS1      59.4    61   338  4     4.05  2.39    10   8.05
# ℹ 53,930 more rows
# ℹ 1 more variable: depth.check <dbl>

Note: We can use the newly created xPLUSy to calculate depth.check.

By combining mutate() with across(), we can create or calculate new columns for each of the variables/columns.

mutate(
    diamonds,
    across(
        -c(cut, color, clarity),
        .fns = cumsum
    )
)

# A tibble: 53,940 × 11
   carat cut       color clarity depth table price     x     y     z    ID
   <dbl> <ord>     <ord> <ord>   <dbl> <dbl> <int> <dbl> <dbl> <dbl> <int>
 1  0.23 Ideal     E     SI2      61.5    55   326  3.95  3.98  2.43     1
 2  0.44 Premium   E     SI1     121.    116   652  7.84  7.82  4.74     3
 3  0.67 Good      E     VS1     178.    181   979 11.9  11.9   7.05     6
 4  0.96 Premium   I     VS2     241.    239  1313 16.1  16.1   9.68    10
 5  1.27 Good      J     SI2     304.    297  1648 20.4  20.5  12.4     15
 6  1.51 Very Good J     VVS2    367.    354  1984 24.4  24.4  14.9     21
 7  1.75 Very Good I     VVS1    429     411  2320 28.3  28.4  17.4     28
 8  2.01 Very Good H     SI1     491.    466  2657 32.4  32.5  19.9     36
 9  2.23 Fair      E     VS2     556     527  2994 36.3  36.3  22.4     45
10  2.46 Very Good H     VS1     615.    588  3332 40.3  40.4  24.8     55
# ℹ 53,930 more rows
…
group_by()

Group the data such that all functions of dplyr are applied to each group of the data separately

group_by(
    diamonds,
    cut
)

# A tibble: 53,940 × 11
# Groups:   cut [5]
   carat cut       color clarity depth table price     x     y     z    ID
   <dbl> <ord>     <ord> <ord>   <dbl> <dbl> <int> <dbl> <dbl> <dbl> <int>
 1  0.23 Ideal     E     SI2      61.5    55   326  3.95  3.98  2.43     1
 2  0.21 Premium   E     SI1      59.8    61   326  3.89  3.84  2.31     2
 3  0.23 Good      E     VS1      56.9    65   327  4.05  4.07  2.31     3
 4  0.29 Premium   I     VS2      62.4    58   334  4.2   4.23  2.63     4
 5  0.31 Good      J     SI2      63.3    58   335  4.34  4.35  2.75     5
 6  0.24 Very Good J     VVS2     62.8    57   336  3.94  3.96  2.48     6
 7  0.24 Very Good I     VVS1     62.3    57   336  3.95  3.98  2.47     7
 8  0.26 Very Good H     SI1      61.9    55   337  4.07  4.11  2.53     8
 9  0.22 Fair      E     VS2      65.1    61   337  3.87  3.78  2.49     9
10  0.23 Very Good H     VS1      59.4    61   338  4     4.05  2.39    10
# ℹ 53,930 more rows

Note: If you don’t use the ungroup() function then the rows of the data frame are still grouped.

The pipe operator %>%

The pipe operator %>% makes it easy to read code. Read from left to right, like the natural functions call order.

diamonds %>%
    select(x, y, z)

# A tibble: 53,940 × 3
       x     y     z
   <dbl> <dbl> <dbl>
 1  3.95  3.98  2.43
 2  3.89  3.84  2.31
 3  4.05  4.07  2.31
 4  4.2   4.23  2.63
 5  4.34  4.35  2.75
 6  3.94  3.96  2.48
 7  3.95  3.98  2.47
 8  4.07  4.11  2.53
 9  3.87  3.78  2.49
10  4     4.05  2.39
# ℹ 53,930 more rows
…
